{
    "name": "wedzem",
    "homepage": "http://packages.wedzem.dev",
    "repositories": [
        { "type": "vcs", "url": "http://gitlab.wedzem.dev/libraries/lib-elastic.git" },
        { "type": "vcs", "url": "http://gitlab.wedzem.dev/libraries/openerp-client.git" },
        { "type": "vcs", "url": "http://gitlab.wedzem.dev/libraries/api-diffusion-client.git" },
        { "type": "vcs", "url": "http://gitlab.wedzem.dev/indus/commander.git" }
    ],
    "require-all": true
}